5 + 1 = 51
5 + 2 = 52
5 + 3 = 53
5 + 4 = 54
5 + 5 = 55
5 + 6 = 56
5 + 7 = 57
5 + 8 = 58
5 + 9 = 59
5 + 10 = 510
5 + 11 = 511
5 + 12 = 512
5 + 13 = 513
5 + 14 = 514
5 + 15 = 515
5 + 16 = 516
5 + 17 = 517
5 + 18 = 518
5 + 19 = 519
5 + 20 = 520
5 + 21 = 521
5 + 22 = 522
5 + 23 = 523
5 + 24 = 524
5 + 25 = 525
5 + 26 = 526
5 + 27 = 527
5 + 28 = 528
5 + 29 = 529
5 + 30 = 530
5 + 31 = 531
5 + 32 = 532
5 + 33 = 533
5 + 34 = 534
5 + 35 = 535
5 + 36 = 536
5 + 37 = 537
5 + 38 = 538
5 + 39 = 539
5 + 40 = 540
5 + 41 = 541
5 + 42 = 542
5 + 43 = 543
5 + 44 = 544
5 + 45 = 545
5 + 46 = 546
5 + 47 = 547
5 + 48 = 548
5 + 49 = 549
5 + 50 = 550
5 + 51 = 551
5 + 52 = 552
5 + 53 = 553
5 + 54 = 554
5 + 55 = 555
5 + 56 = 556
5 + 57 = 557
5 + 58 = 558
5 + 59 = 559
5 + 60 = 560
5 + 61 = 561
5 + 62 = 562
5 + 63 = 563
5 + 64 = 564
5 + 65 = 565
5 + 66 = 566
5 + 67 = 567
5 + 68 = 568
5 + 69 = 569
5 + 70 = 570
5 + 71 = 571
5 + 72 = 572
5 + 73 = 573
5 + 74 = 574
5 + 75 = 575
5 + 76 = 576
5 + 77 = 577
5 + 78 = 578
5 + 79 = 579
5 + 80 = 580
5 + 81 = 581
5 + 82 = 582
5 + 83 = 583
5 + 84 = 584
5 + 85 = 585
5 + 86 = 586
5 + 87 = 587
5 + 88 = 588
5 + 89 = 589
5 + 90 = 590
5 + 91 = 591
5 + 92 = 592
5 + 93 = 593
5 + 94 = 594
5 + 95 = 595
5 + 96 = 596
5 + 97 = 597
5 + 98 = 598
5 + 99 = 599
5 + 100 = 5100
